{
 "statusCode": 200,
 "message": "SUCCESS",
 "productDetail": {
    "productId" : 103,
    "name" : "GoPro Camera",
    "summary" : "Who doesn't want video of everything.",
    "manufacturer" : "GoPro",
    "description" : "A camera",
    "dimensions" : "1x3x5",
    "weight" : 3.5,
    "asin" : "1000ABC-DEF",
    "model" : "v3",
    "averageRating" : 4.0,
    "totalRatings" : 2,
    "inventoryAvailable" : 20,
    "price" : 85.99,
    "currency" : "USD",
    "reviews" : [
      {
        "id" : 4000,
        "user" : "kking",
        "rating" : 3,
        "review" : "Looks pretty.",
        "createdDate" : "2019-07-22T14:30:00.000Z"
      }, {
        "id" : 4001,
        "user" : "adesjardin",
        "rating" : 1,
        "review" : "Crashed my vette trying to see how fast I can go.",
        "createdDate" : "2019-06-13T14:30:00.000Z"
      }
    ]
  }
}
